[
  {
    "name": "inform",
    "count": 4,
    "value": 2.11492
  },
  {
    "name": "cake",
    "count": 1,
    "value": 43.745403
  },
  {
    "name": "respect",
    "count": 7,
    "value": 5.503492
  },
  {
    "name": "bruise",
    "count": 9,
    "value": 10.436063
  },
  {
    "name": "sniff",
    "count": 1,
    "value": 82.66581
  },
  {
    "name": "hope",
    "count": 6,
    "value": 2.0216088
  },
  {
    "name": "crack",
    "count": 7,
    "value": 1.2766087
  },
  {
    "name": "planes",
    "count": 2,
    "value": 15.29753
  },
  {
    "name": "murder",
    "count": 4,
    "value": 12.5010605
  },
  {
    "name": "icy",
    "count": 9,
    "value": 4.0691547
  },
  {
    "name": "honey",
    "count": 6,
    "value": 12.555061
  },
  {
    "name": "tart",
    "count": 8,
    "value": 1.365917
  },
  {
    "name": "sniff",
    "count": 2,
    "value": 41.6865
  },
  {
    "name": "reflect",
    "count": 2,
    "value": 37.512978
  },
  {
    "name": "charge",
    "count": 7,
    "value": 2.1756516
  },
  {
    "name": "obese",
    "count": 4,
    "value": 11.084823
  },
  {
    "name": "squeeze",
    "count": 9,
    "value": 7.4618244
  },
  {
    "name": "girls",
    "count": 9,
    "value": 2.970262
  },
  {
    "name": "warn",
    "count": 6,
    "value": 11.383534
  },
  {
    "name": "paddle",
    "count": 8,
    "value": 1.955087
  },
  {
    "name": "receipt",
    "count": 4,
    "value": 2.113897
  },
  {
    "name": "chilly",
    "count": 8,
    "value": 8.705937
  },
  {
    "name": "way",
    "count": 3,
    "value": 9.860353
  },
  {
    "name": "pointless",
    "count": 1,
    "value": 33.342773
  },
  {
    "name": "ashamed",
    "count": 2,
    "value": 46.921204
  },
  {
    "name": "encourage",
    "count": 5,
    "value": 5.713048
  },
  {
    "name": "girls",
    "count": 4,
    "value": 5.671828
  },
  {
    "name": "zippy",
    "count": 5,
    "value": 16.112051
  },
  {
    "name": "long-term",
    "count": 7,
    "value": 11.091483
  },
  {
    "name": "frightened",
    "count": 4,
    "value": 14.137719
  },
  {
    "name": "icy",
    "count": 6,
    "value": 13.325093
  },
  {
    "name": "way",
    "count": 5,
    "value": 0.32140982
  },
  {
    "name": "reflect",
    "count": 6,
    "value": 10.019586
  },
  {
    "name": "charge",
    "count": 2,
    "value": 0.4379169
  },
  {
    "name": "lovely",
    "count": 1,
    "value": 18.05425
  },
  {
    "name": "swanky",
    "count": 1,
    "value": 86.16721
  },
  {
    "name": "driving",
    "count": 7,
    "value": 11.523505
  },
  {
    "name": "long-term",
    "count": 6,
    "value": 2.925246
  },
  {
    "name": "quicksand",
    "count": 0,
    "value": 34.831806
  },
  {
    "name": "fine",
    "count": 8,
    "value": 7.485234
  },
  {
    "name": "adhesive",
    "count": 8,
    "value": 0.59664726
  },
  {
    "name": "equable",
    "count": 3,
    "value": 21.63227
  },
  {
    "name": "aboriginal",
    "count": 7,
    "value": 10.104871
  },
  {
    "name": "record",
    "count": 4,
    "value": 14.818443
  },
  {
    "name": "trot",
    "count": 1,
    "value": 86.88379
  },
  {
    "name": "zippy",
    "count": 1,
    "value": 3.8375988
  },
  {
    "name": "foot",
    "count": 1,
    "value": 3.3175726
  },
  {
    "name": "cake",
    "count": 6,
    "value": 14.033379
  },
  {
    "name": "geese",
    "count": 2,
    "value": 4.5782304
  },
  {
    "name": "telephone",
    "count": 2,
    "value": 41.268036
  },
  {
    "name": "geese",
    "count": 2,
    "value": 49.222927
  },
  {
    "name": "aboriginal",
    "count": 7,
    "value": 4.438147
  },
  {
    "name": "aboriginal",
    "count": 8,
    "value": 4.102159
  },
  {
    "name": "jumpy",
    "count": 5,
    "value": 6.001727
  },
  {
    "name": "elite",
    "count": 1,
    "value": 94.86183
  },
  {
    "name": "planes",
    "count": 6,
    "value": 7.3279033
  },
  {
    "name": "quicksand",
    "count": 4,
    "value": 24.330456
  },
  {
    "name": "interfere",
    "count": 8,
    "value": 9.451016
  },
  {
    "name": "arrange",
    "count": 3,
    "value": 4.1472564
  },
  {
    "name": "frightened",
    "count": 7,
    "value": 1.7789955
  },
  {
    "name": "right",
    "count": 2,
    "value": 37.34823
  },
  {
    "name": "gaze",
    "count": 4,
    "value": 19.172806
  },
  {
    "name": "false",
    "count": 4,
    "value": 17.288176
  },
  {
    "name": "fancy",
    "count": 8,
    "value": 11.567268
  },
  {
    "name": "quilt",
    "count": 2,
    "value": 29.339016
  },
  {
    "name": "adhesive",
    "count": 5,
    "value": 11.527634
  },
  {
    "name": "oval",
    "count": 8,
    "value": 3.2920117
  },
  {
    "name": "ashamed",
    "count": 8,
    "value": 8.598574
  },
  {
    "name": "harsh",
    "count": 0,
    "value": 42.44031
  },
  {
    "name": "chilly",
    "count": 7,
    "value": 7.0738425
  },
  {
    "name": "remarkable",
    "count": 8,
    "value": 11.698687
  },
  {
    "name": "quilt",
    "count": 2,
    "value": 47.899265
  },
  {
    "name": "quicksand",
    "count": 0,
    "value": 0.025577683
  },
  {
    "name": "record",
    "count": 8,
    "value": 0.5934431
  },
  {
    "name": "friend",
    "count": 0,
    "value": 18.400608
  },
  {
    "name": "charge",
    "count": 8,
    "value": 12.402012
  },
  {
    "name": "pot",
    "count": 6,
    "value": 7.826603
  },
  {
    "name": "planes",
    "count": 3,
    "value": 23.506922
  },
  {
    "name": "pot",
    "count": 4,
    "value": 0.8261076
  },
  {
    "name": "elite",
    "count": 6,
    "value": 9.852042
  },
  {
    "name": "romantic",
    "count": 8,
    "value": 5.949155
  },
  {
    "name": "trashy",
    "count": 3,
    "value": 14.552563
  },
  {
    "name": "callous",
    "count": 9,
    "value": 1.090699
  },
  {
    "name": "zippy",
    "count": 9,
    "value": 6.1989055
  },
  {
    "name": "gaze",
    "count": 1,
    "value": 29.599396
  },
  {
    "name": "arrange",
    "count": 5,
    "value": 19.808193
  },
  {
    "name": "fancy",
    "count": 4,
    "value": 19.649693
  },
  {
    "name": "crack",
    "count": 8,
    "value": 1.5472205
  },
  {
    "name": "bruise",
    "count": 7,
    "value": 10.624304
  },
  {
    "name": "untidy",
    "count": 2,
    "value": 17.132263
  },
  {
    "name": "oval",
    "count": 4,
    "value": 13.174566
  },
  {
    "name": "clumsy",
    "count": 5,
    "value": 15.205066
  },
  {
    "name": "equable",
    "count": 8,
    "value": 3.0765157
  },
  {
    "name": "girls",
    "count": 9,
    "value": 0.44050562
  },
  {
    "name": "driving",
    "count": 0,
    "value": 50.67814
  },
  {
    "name": "respect",
    "count": 2,
    "value": 38.83395
  },
  {
    "name": "obese",
    "count": 2,
    "value": 26.115925
  },
  {
    "name": "marked",
    "count": 2,
    "value": 12.980357
  },
  {
    "name": "tangy",
    "count": 3,
    "value": 24.914932
  },
  {
    "name": "sky",
    "count": 0,
    "value": 51.124115
  }
]